\BOOKMARK [1][-]{section.1}{Gounki}{}% 1
\BOOKMARK [2][-]{subsection.1.1}{Game start}{section.1}% 2
\BOOKMARK [2][-]{subsection.1.2}{Moving simple pieces}{section.1}% 3
\BOOKMARK [3][-]{subsubsection.1.2.1}{Round pieces}{subsection.1.2}% 4
\BOOKMARK [3][-]{subsubsection.1.2.2}{Square pieces}{subsection.1.2}% 5
\BOOKMARK [2][-]{subsection.1.3}{Capturing}{section.1}% 6
\BOOKMARK [2][-]{subsection.1.4}{Clustering}{section.1}% 7
\BOOKMARK [2][-]{subsection.1.5}{Moving combined Pieces}{section.1}% 8
\BOOKMARK [3][-]{subsubsection.1.5.1}{Moving combined pieces of two simple pieces}{subsection.1.5}% 9
\BOOKMARK [3][-]{subsubsection.1.5.2}{Moving combined pieces of three simple pieces}{subsection.1.5}% 10
\BOOKMARK [2][-]{subsection.1.6}{Bouncing on boundaries}{section.1}% 11
\BOOKMARK [3][-]{subsubsection.1.6.1}{Special cases of bouncing}{subsection.1.6}% 12
\BOOKMARK [1][-]{section.2}{Movement}{}% 13
\BOOKMARK [1][-]{section*.4}{Bibliografia}{}% 14
\BOOKMARK [1][-]{appendix.A}{Nome do Anexo}{}% 15
