\relax 
\providecommand\hyper@newdestlabel[2]{}
\providecommand\HyperFirstAtBeginDocument{\AtBeginDocument}
\HyperFirstAtBeginDocument{\ifx\hyper@anchor\@undefined
\global\let\oldcontentsline\contentsline
\gdef\contentsline#1#2#3#4{\oldcontentsline{#1}{#2}{#3}}
\global\let\oldnewlabel\newlabel
\gdef\newlabel#1#2{\newlabelxx{#1}#2}
\gdef\newlabelxx#1#2#3#4#5#6{\oldnewlabel{#1}{{#2}{#3}}}
\AtEndDocument{\ifx\hyper@anchor\@undefined
\let\contentsline\oldcontentsline
\let\newlabel\oldnewlabel
\fi}
\fi}
\global\let\hyper@last\relax 
\gdef\HyperFirstAtBeginDocument#1{#1}
\providecommand\HyField@AuxAddToFields[1]{}
\providecommand\HyField@AuxAddToCoFields[2]{}
\select@language{english}
\@writefile{toc}{\select@language{english}}
\@writefile{lof}{\select@language{english}}
\@writefile{lot}{\select@language{english}}
\citation{CodigoSite}
\citation{CodigoLivro}
\@writefile{toc}{\contentsline {section}{\numberline {1}Gounki}{4}{section.1}}
\@writefile{toc}{\contentsline {subsection}{\numberline {1.1}Game start}{4}{subsection.1.1}}
\@writefile{lof}{\contentsline {figure}{\numberline {1}{\ignorespaces Initial game configuration}}{4}{figure.1}}
\newlabel{fig:gameStart}{{1}{4}{Initial game configuration}{figure.1}{}}
\@writefile{toc}{\contentsline {subsection}{\numberline {1.2}Moving simple pieces}{5}{subsection.1.2}}
\@writefile{toc}{\contentsline {subsubsection}{\numberline {1.2.1}Round pieces}{5}{subsubsection.1.2.1}}
\@writefile{lof}{\contentsline {figure}{\numberline {2}{\ignorespaces Round pieces movement}}{5}{figure.2}}
\newlabel{fig:simplePiecesMovement}{{2}{5}{Round pieces movement}{figure.2}{}}
\@writefile{toc}{\contentsline {subsubsection}{\numberline {1.2.2}Square pieces}{6}{subsubsection.1.2.2}}
\@writefile{lof}{\contentsline {figure}{\numberline {3}{\ignorespaces Square pieces movement}}{6}{figure.3}}
\newlabel{fig:squarePiecesMovement}{{3}{6}{Square pieces movement}{figure.3}{}}
\@writefile{toc}{\contentsline {subsection}{\numberline {1.3}Capturing}{7}{subsection.1.3}}
\@writefile{toc}{\contentsline {subsection}{\numberline {1.4}Clustering}{7}{subsection.1.4}}
\@writefile{toc}{\contentsline {subsection}{\numberline {1.5}Moving combined Pieces}{8}{subsection.1.5}}
\@writefile{lof}{\contentsline {figure}{\numberline {4}{\ignorespaces Pieces can't leapfrog pieces with a different color}}{8}{figure.4}}
\newlabel{fig:piecesLeapfrog}{{4}{8}{Pieces can't leapfrog pieces with a different color}{figure.4}{}}
\@writefile{toc}{\contentsline {subsubsection}{\numberline {1.5.1}Moving combined pieces of two simple pieces}{9}{subsubsection.1.5.1}}
\@writefile{lof}{\contentsline {figure}{\numberline {5}{\ignorespaces Combined pieces movement}}{9}{figure.5}}
\newlabel{fig:doubleCombinedPiecesMovement}{{5}{9}{Combined pieces movement}{figure.5}{}}
\@writefile{toc}{\contentsline {subsubsection}{\numberline {1.5.2}Moving combined pieces of three simple pieces}{10}{subsubsection.1.5.2}}
\@writefile{lof}{\contentsline {figure}{\numberline {6}{\ignorespaces Combined pieces movement}}{10}{figure.6}}
\newlabel{fig:combinedMovement2}{{6}{10}{Combined pieces movement}{figure.6}{}}
\@writefile{lof}{\contentsline {figure}{\numberline {7}{\ignorespaces Combined pieces movement}}{10}{figure.7}}
\newlabel{fig:combinedMovement3}{{7}{10}{Combined pieces movement}{figure.7}{}}
\@writefile{toc}{\contentsline {subsection}{\numberline {1.6}Bouncing on boundaries}{12}{subsection.1.6}}
\@writefile{lof}{\contentsline {figure}{\numberline {8}{\ignorespaces Bouncing movement}}{12}{figure.8}}
\newlabel{fig:bouncingMovement}{{8}{12}{Bouncing movement}{figure.8}{}}
\@writefile{toc}{\contentsline {subsubsection}{\numberline {1.6.1}Special cases of bouncing}{12}{subsubsection.1.6.1}}
\@writefile{lof}{\contentsline {figure}{\numberline {9}{\ignorespaces Special bouncing movement}}{12}{figure.9}}
\newlabel{fig:specialBouncingMovement}{{9}{12}{Special bouncing movement}{figure.9}{}}
\@writefile{toc}{\contentsline {section}{\numberline {2}Movement}{15}{section.2}}
\bibstyle{plain}
\bibdata{myrefs}
\@writefile{toc}{\contentsline {section}{Bibliografia}{17}{section*.4}}
\@writefile{toc}{\contentsline {section}{\numberline {A}Nome do Anexo}{17}{appendix.A}}
